GameLift_UE4/Binaries/Win64/GameLift_UE4Server.exe	2022-08-26T07:53:56.304Z
GameLift_UE4/Binaries/Win64/turbojpeg.dll	2022-08-25T08:17:51.173Z
Engine/Extras/Redist/en-us/UE4PrereqSetup_x64.exe	2022-08-25T08:21:05.764Z
GameLift_UE4/Plugins/GameLiftServerSDK/ThirdParty/GameLiftServerSDK/Win64/aws-cpp-sdk-gamelift-server.dll	2022-08-26T03:34:18.100Z
Engine/Binaries/ThirdParty/Oculus/OVRPlugin/OVRPlugin/Win64/OVRPlugin.dll	2022-08-25T08:15:23.687Z
Engine/Binaries/ThirdParty/DbgHelp/dbghelp.dll	2022-08-25T08:13:38.862Z
Engine/Binaries/ThirdParty/PhysX3/Win64/VS2015/PxFoundationPROFILE_x64.dll	2022-08-25T08:14:43.466Z
Engine/Binaries/ThirdParty/PhysX3/Win64/VS2015/PxPvdSDKPROFILE_x64.dll	2022-08-25T08:20:41.807Z
Engine/Binaries/ThirdParty/PhysX3/Win64/VS2015/PhysX3PROFILE_x64.dll	2022-08-25T08:13:34.538Z
Engine/Binaries/ThirdParty/PhysX3/Win64/VS2015/PhysX3CookingPROFILE_x64.dll	2022-08-25T08:13:35.057Z
Engine/Binaries/ThirdParty/PhysX3/Win64/VS2015/PhysX3CommonPROFILE_x64.dll	2022-08-25T08:11:52.016Z
Engine/Binaries/ThirdParty/PhysX3/Win64/VS2015/APEX_ClothingPROFILE_x64.dll	2022-08-25T08:21:15.637Z
Engine/Binaries/ThirdParty/PhysX3/Win64/VS2015/APEX_LegacyPROFILE_x64.dll	2022-08-25T08:17:45.957Z
Engine/Binaries/ThirdParty/PhysX3/Win64/VS2015/ApexFrameworkPROFILE_x64.dll	2022-08-25T08:13:05.750Z
Engine/Binaries/ThirdParty/PhysX3/Win64/VS2015/NvClothPROFILE_x64.dll	2022-08-25T08:13:35.010Z
Engine/Binaries/ThirdParty/Ogg/Win64/VS2015/libogg_64.dll	2022-08-25T08:11:47.709Z
Engine/Binaries/ThirdParty/Vorbis/Win64/VS2015/libvorbis_64.dll	2022-08-25T08:18:33.122Z
Engine/Binaries/ThirdParty/Vorbis/Win64/VS2015/libvorbisfile_64.dll	2022-08-25T08:11:47.841Z
Engine/Binaries/ThirdParty/NVIDIA/NVaftermath/Win64/GFSDK_Aftermath_Lib.x64.dll	2022-08-25T08:12:52.757Z
Engine/Binaries/ThirdParty/OpenVR/OpenVRv1_5_17/Win64/openvr_api.dll	2022-08-25T08:09:58.270Z
Engine/Binaries/ThirdParty/Windows/WinPixEventRuntime/x64/WinPixEventRuntime.dll	2022-08-25T08:08:16.868Z
GameLift_UE4Server.exe	2022-08-26T07:56:18.140Z
